<svg xmlns="http://www.w3.org/2000/svg" width="41.458" height="40.913" viewBox="0 0 41.458 40.913">
    <defs>
        <style>
            .cls-1{fill:#2699fb}
        </style>
    </defs>
    <g id="bed_red" transform="translate(-2.774)">
        <path id="Path_654" d="M41.69 17.625H4.267c-1.11 0-2.017 1.216-2.017 2.7v18.122c0 1.489.907 2.7 2.017 2.7H4.3c1.11 0 2.017-1.216 2.017-2.7v-.769c0-.273.167-.5.37-.5h32.579c.2 0 .37.223.37.5v.769c0 1.489.907 2.7 2.017 2.7h.037c1.11 0 2.017-1.216 2.017-2.7V20.33c.001-1.489-.907-2.705-2.017-2.705z" class="cls-1" transform="translate(.524 -.238)"/>
        <path id="Path_655" d="M19.374 26.791h2.592a.6.6 0 0 0 .515-.648v-2.1a2.378 2.378 0 0 1 2.06-2.59h20.585a2.378 2.378 0 0 1 2.06 2.59v2.1a.6.6 0 0 0 .515.648h2.9a1.189 1.189 0 0 0 1.03-1.3v-8.686c0-2.849-1.854-5.18-4.119-5.18H22.463c-2.266 0-4.119 2.331-4.119 5.18V25.5a1.189 1.189 0 0 0 1.03 1.291z" class="cls-1" transform="translate(-11.375 -11.625)"/>
        <text id="OK" fill="#fff" font-family="Poppins-Medium, Poppins" font-size="12px" font-weight="500" transform="translate(13.346 32.15)">
            <tspan x="0" y="0">OK</tspan>
        </text>
    </g>
</svg>
