<svg xmlns="http://www.w3.org/2000/svg" width="48.293" height="45.293" viewBox="0 0 48.293 45.293">
    <defs>
        <style>
            .cls-4{stroke:#fb4326;stroke-width:3px}.cls-10,.cls-4{fill:none}.cls-4{stroke-linecap:round}.cls-8{stroke:none}
        </style>
    </defs>
    <g id="door_red" transform="translate(-268.854 -328)">
        <g id="Path_658" fill="#fb4326">
            <path d="M.5 42.428V.56l18 2.044V39.99l-18 2.439z" class="cls-8" transform="translate(288 329)"/>
            <path fill="#707070" d="M1 1.12v40.735l17-2.303V3.051L1 1.12M0 0l19 2.158v38.268L0 43V0z" transform="translate(288 329)"/>
        </g>
        <g id="Group_82" transform="translate(-3792.147 -6099.293)">
            <g id="Rectangle_147" fill="#2699fb" stroke="#fb4326" stroke-width="3px">
                <path d="M1 0h4.21v35.407a1 1 0 0 1-1 1H0V1a1 1 0 0 1 1-1z" class="cls-8" transform="translate(4073.153 6434.045)"/>
                <path d="M2 1.5h.21A1.5 1.5 0 0 1 3.71 3v31.407a.5.5 0 0 1-.5.5H3a1.5 1.5 0 0 1-1.5-1.5V2a.5.5 0 0 1 .5-.5z" class="cls-10" transform="translate(4073.153 6434.045)"/>
            </g>
            <g id="Rectangle_146" fill="none" stroke="#fb4326" stroke-linecap="round" stroke-linejoin="round" stroke-width="3px">
                <path d="M1 0h5.67v35.676H0V1a1 1 0 0 1 1-1z" class="cls-8" transform="translate(4071.477 6432.293)"/>
                <path d="M1-1.5h5.67A1.5 1.5 0 0 1 8.17 0v35.676a1.5 1.5 0 0 1-1.5 1.5H0a1.5 1.5 0 0 1-1.5-1.5V1A2.5 2.5 0 0 1 1-1.5z" class="cls-10" transform="translate(4071.477 6432.293)"/>
            </g>
            <path id="Path_657" d="M185.458 0h12.487" class="cls-4" transform="translate(3909.848 6469.452)"/>
            <path id="Line_18" d="M0 0L14.146 0" class="cls-4" transform="translate(4062.5 6469.452)"/>
            <g id="Path_656" fill="none" stroke-linecap="round">
                <path d="M.98 0L21.8 2.061v40.856L.98 45.293a.98.98 0 0 1-.98-.98V.98A.98.98 0 0 1 .98 0z" class="cls-8" transform="translate(4079.146 6427.293)"/>
                <path fill="#fb4326" d="M3 3.215v38.828l15.797-1.803V4.78L3 3.215M.98 0l20.817 2.06v40.857L.98 45.293c-.541 0-.98-.438-.98-.98V.98C0 .44.439 0 .98 0z" transform="translate(4079.146 6427.293)"/>
            </g>
            <text id="Alert" fill="#fff" font-family="Poppins-Regular, Poppins" font-size="8px" transform="translate(4081.147 6452.293)">
                <tspan x="0" y="0">Alert</tspan>
            </text>
        </g>
        <path id="Line_19" fill="none" stroke="#ffc0bb" stroke-width="2px" d="M0 0L0 43" transform="translate(286 329)"/>
    </g>
</svg>
